Black Wealth in Louisville
…
business_ownership_county_clean

## # A tibble: 21 x 14
## # Groups:   FIPS, year [21]
##    FIPS   year sex   race  employees_num firms_num payroll_num revenue_num
##    <chr> <dbl> <chr> <chr>         <dbl>     <dbl>       <dbl>       <dbl>
##  1 01073  2017 total black          4709       474      112799      441060
##  2 12031  2017 total black          6679       871      183783      528456
##  3 18097  2017 total black         11357       546      279452     1046899
##  4 21111  2017 total black          3486       360       93254      321676
##  5 26081  2017 total black          1535       116       49793      181552
##  6 29095  2017 total black          5013      1112      106965      294451
##  7 31055  2017 total black          1472       173       39088      149556
##  8 37081  2017 total black          7203       501      160728      590377
##  9 37119  2017 total black         12574      1055      479512     1282463
## 10 37183  2017 total black          5721       876      151803      500725
## # ... with 11 more rows, and 6 more variables: population <dbl>,
## #   employees_num_per_100 <dbl>, firms_num_per_100 <dbl>,
## #   payroll_num_per_100 <dbl>, revenue_num_per_100 <dbl>, pop_percent <dbl>
…
